{
	"basics": {
		"favorites": [],
		// Declares whether cheating mode is on.
		"cheating": false,
		"favoritesEnabled": true,
		"keyBindings": {
			"recipeKeybind": {
				"keyCode": "key.keyboard.r",
				"modifier": 2
			},
			"usageKeybind": {
				"keyCode": "key.keyboard.u",
				"modifier": 2
			},
			"hideKeybind": {
				"keyCode": "key.keyboard.o",
				"modifier": 2
			},
			"previousPageKeybind": {
				"keyCode": "key.keyboard.unknown",
				"modifier": 0
			},
			"nextPageKeybind": {
				"keyCode": "key.keyboard.unknown",
				"modifier": 0
			},
			"focusSearchFieldKeybind": {
				"keyCode": "key.keyboard.unknown",
				"modifier": 0
			},
			"copyRecipeIdentifierKeybind": {
				"keyCode": "key.mouse.middle",
				"modifier": 0
			},
			"favoriteKeybind": {
				"keyCode": "key.keyboard.a",
				"modifier": 2
			},
			"exportImageKeybind": {
				"keyCode": "key.keyboard.f8",
				"modifier": 0
			},
			"previousScreenKeybind": {
				"keyCode": "key.keyboard.backspace",
				"modifier": 0
			}
		},
		// Declares whether REI is visible.
		"overlayVisible": true,
		"cheatingStyle": "GRAB",
		"motion": {
			"favoritesAnimation": true
		}
	},
	"advanced": {
		"filtering": {
			"shouldFilterDisplays": true,
			"filteringRules": [
				"{id:\"roughlyenoughitems:manual\",rule:{}}"
			],
			"filteredStacks": []
		},
		"enableJeiCompatibilityLayer": true,
		"tooltips": {
			// Declares whether REI should append mod names to entries.
			"appendModNames": true,
			// Declares whether favorites tooltip should be displayed.
			"displayFavoritesTooltip": false
		},
		"layout": {
			// The ordering of the items on the entry panel.
			"entryPanelOrdering": "REGISTRY_ASCENDING",
			// Declares the maximum amount of recipes displayed in a page if possible.
			"maxRecipesPerPage": 8,
			// Declares the maximum amount of recipes displayed in a page if possible.
			"maxRecipesPageHeight": 300,
			// Declares whether entry rendering time should be debugged.
			"debugRenderTimeRequired": false,
			// Merges displays with equal contents under 1 display.
			"mergeDisplayUnderOne": true
		},
		"accessibility": {
			"entrySize": 1.0,
			// Declares the position of the entry panel.
			"displayPanelLocation": "RIGHT",
			// Declares whether scrolled entry panel should snap to rows.
			"snapToRows": false,
			// Declares how the scrollbar in composite screen should act.
			"compositeScrollBarPermanent": false,
			"toastDisplayedOnCopyIdentifier": true,
			// Declares whether REI should use compact tabs for categories.
			"useCompactTabs": true
		},
		"search": {
			// Declares whether search time should be debugged.
			"debugSearchTimeRequired": false,
			// Declares whether REI should search async.
			"asyncSearch": true,
			// Declares how many entries should be grouped one async search.
			"asyncSearchPartitionSize": 100,
			"tooltipSearch": "ALWAYS",
			"tagSearch": "PREFIX",
			"identifierSearch": "ALWAYS",
			"modSearch": "PREFIX"
		},
		"commands": {
			// Declares the command used to change gamemode.
			"gamemodeCommand": "/gamemode {gamemode}",
			// Declares the command used in servers to cheat items.
			"giveCommand": "/give {player_name} {item_identifier}{nbt} {count}",
			// Declares the command used to change weather.
			"weatherCommand": "/weather {weather}"
		},
		"miscellaneous": {
			// Declares whether arrows in containers should be clickable.
			"clickableRecipeArrows": true,
			"registerRecipesInAnotherThread": true,
			"newFastEntryRendering": true
		}
	},
	"appearance": {
		"recipeScreenType": "COMPOSITE",
		// Declares the appearance of REI windows.
		"theme": "LIGHT",
		"layout": {
			// Declares the position of the search field.
			"searchFieldLocation": "CENTER",
			// Declares the position of the config button.
			"configButtonLocation": "LOWER",
			// Declares whether the craftable filter button is enabled.
			"enableCraftableOnlyButton": false
		},
		// Declares the appearance of recipe's border.
		"recipeBorder": "DEFAULT",
		// Declares whether entry panel is scrolled.
		"scrollingEntryListWidget": false,
		"horizontalEntriesBoundaries": 1.0,
		"verticalEntriesBoundaries": 1.0,
		"horizontalEntriesBoundariesColumns": 50,
		"verticalEntriesBoundariesRows": 1000,
		"favoritesHorizontalEntriesBoundaries": 1.0,
		"favoritesHorizontalEntriesBoundariesColumns": 50,
		"syntaxHighlightingMode": "COLORFUL"
	},
	"functionality": {
		// Declares whether REI should remove the recipe book.
		"disableRecipeBook": false,
		// Declares whether mob effects should be on the left side instead of the right side.
		"leftSideMobEffects": false,
		// Declares whether subsets is enabled.
		"isSubsetsEnabled": false,
		"allowInventoryHighlighting": true
	}
}